{
"tileSetDataMap": {
	"DEFAULT_TILESET": {
		"tileTypeData": {
			"HOLE": [
				{
					"complexity": "EIGHTBIT",
					"layer": 0,
					"offset": 55
				},
				{
					"complexity": "ZEROBIT",
					"layer": 1,
					"offset": 0
				},
				{
					"complexity": "ZEROBIT",
					"layer": 2,
					"offset": 0
				}
			],
			"EMPTY": [
				{
					"complexity": "ZEROBIT",
					"layer": 0,
					"offset": 52
				},
				{
					"complexity": "ZEROBIT",
					"layer": 1,
					"offset": 0
				},
				{
					"complexity": "ZEROBIT",
					"layer": 2,
					"offset": 0
				}
			],
			"INDESTRUCTIBLEWALL": [
				{
					"complexity": "ZEROBIT",
					"layer": 0,
					"offset": 52
				},
				{
					"complexity": "TWOBIT",
					"layer": 1,
					"offset": 112
				},
				{
					"complexity": "EIGHTBIT",
					"layer": 2,
					"offset": 116
				}
			],
			"CHEST": [
				{
					"complexity": "ZEROBIT",
					"layer": 0,
					"offset": 52
				},
				{
					"complexity": "ZEROBIT",
					"layer": 1,
					"offset": 105
				},
				{
					"complexity": "ZEROBIT",
					"layer": 2,
					"offset": 106
				}
			],
			"DESTRUCTIBLEWALL": [
				{
					"complexity": "ZEROBIT",
					"layer": 0,
					"offset": 52
				},
				{
					"complexity": "TWOBIT",
					"layer": 1,
					"offset": 48
				},
				{
					"complexity": "EIGHTBIT",
					"layer": 2,
					"offset": 1
				}
			],
			"CRATE": [
				{
					"complexity": "ZEROBIT",
					"layer": 0,
					"offset": 52
				},
				{
					"complexity": "ZEROBIT",
					"layer": 1,
					"offset": 0
				},
				{
					"complexity": "ZEROBIT",
					"layer": 2,
					"offset": 0
				}
			]
		},
		"alternatives": {
			"52": [ 52, 52, 52, 52, 52, 52, 52, 52, 52, 52, 52, 52, 53, 54 ],
			"105": [ 105, 107, 109, 110 ],
			"106": [ 106, 108, 0, 111 ]
		}
	}
}
}