BIG_ROOM,cwwww   wwwrrrrrrrrwww  wwwwwc,  w           rr         www  ,                              ,                              ,        hhhhhhhhhhhhhh        ,h      hhhhhhhhhhhhhhhh      h,hh     hhhhhhhhhhhhhhhh     hh,hhh    hhh          hhh    hhh, hh    hhh          hhh    hh , hh    hhh 0 0  0 0 hhh    hh ,hhh    hhh          hhh    hhh,hh     hhhhhhhhhhhhhhhh     hh,h      hhhhhhhhhhhhhhhh      h,        hhhhhhhhhhhhhh        ,                              ,wwww                       www,wwwww         rr          wwww,wwwww    wwrrrrrrrrw     wwwww,EvilCookie,
BIG_ROOM,wwwwwh  hhwwwwwwwwwwhh  hwwwww,wwhhhh  hhhwwwwwwwhhhh  hhhhww,whhhhhhhhhhhhhhhhhhhhhhhhhhhhw,  hh  hh  hh  hh  hh  hh  hh  ,  hh  hh  hh  hh  hh  hh  hh  ,hhhhhhhhhhhhhhhhhhhhhhhhhhhhhh,hhhhhh  hhhhhhhhhhhhhh  hhhhhh,  hhhh  hhhh      hhhh  hhhh  , 0 hhhhhhhh 0    0 hhhhhhhh 0 ,   hhhhhhhh        hhhhhhhh   ,  hhhh  hhhh      hhhh  hhhh  ,hhhhhh  hhhhhhhhhhhhhh  hhhhhh,hhhhhhhhhhhhhhhhhhhhhhhhhhhhhh,  hh  hh  hh  hh  hh  hh  hh  ,  hh  hh  hh  hh  hh  hh  hh  ,whhhhhhhhhhhhhhhhhhhhhhhhhhhhw,wwhhhh  hhhhwwwhhhhhhh  hhhhww,wwwwwh  hwwwwwwwwwwwwh  hwwwww,EvilCookie,
BIG_ROOM,wwwww   hh wwwwwwww hh  wwwwww,wwww    hh   wwww   hh    wwww,w       hh   wrrw   hh      ww,        hh    rr    hh        ,        hh    rr    hh        ,        hh    rr    hh        ,      0 hh 0      0 hh 0      ,       hhhh        hhhh       ,hhhhhhhhhhhhhhhhhhhhhhhhhhhhhh,hhhhhhhhhhhhhhhhhhhhhhhhhhhhhh,       hhhh        hhhh       ,      0 hh 0      0 hh 0      ,        hh    rr    hh        ,        hh    rr    hh        ,        hh    rr    hh        ,        hh   wrrw   hh       w,w www   hh   wwww   hh      ww,wwwww   hh wwwwwwww hh   wwwww,EvilCookie,
BIG_ROOM,wwwww   wwwwwww   wwww  wwwwww,wwww                    wwwwww,wwww                        ww,                              ,     0   hhhhhhhhhhh    0     ,        hhhhhhhhhhhhhh        ,      r hhhhhhhhhhhhhh        ,w     r hhhhhhhhhhhhhh        ,ww    r hhhhhhcchhhhhh        ,ww      hhhhhh  hhhhhh        ,ww      hhhhhhhhhhhhhh        ,rr      hhhhhhhhhhhhhh        ,     0  hh  hh  hhhhhh        ,        hh  hh  hhhhhh        ,        hhhhhhhhhhhhhh        ,        hhhhhhhhhhhhhh       w,ww      hhhhhh  hh  hh     www,wwww    hhhhhh  hh  hh   wwwww,EvilCookie,
WIDE_ROOM,wwwww   wwwwwwwwwwwwww   wwwww,www      wwww hh  hww      www,ww        hhc hh0 hh        ww,          hh  hh  hh          ,      0   hh  hh  hh    0     ,ww        hh  hh  hh        ww,www       hh wwww hh       www,wwwww    wwwwwwwwwww     wwwww,EvilCookie,
WIDE_ROOM,hhhhhh  hhhhhhhhhhhhhh  hhhhhh,hhhhh  0 hhhhhhhhhhhh      hhh,hh  h    hhh      hhh   0    h,    h    hh   r 0  hh         ,    h  0 hh 0 r    hh   hh    ,   hh    hhh      hhh   hhhhhh,hhhhhh   hhhhhhhhhhhh    hhhhh,hhhhhh  hhhhhhhhhhhhhh   hhhhh,EvilCookie,
WIDE_ROOM,wwwww   wwwwwwwwwwwwww  wwwwww,www         wwwwwwwwww    wwww,ww            wwwwww       www,      wwww    wwwww    0      ,       www 0   www            , 0     cww               wwwww,www     www        ww    wwwww,wwwwww  wwwwww    wwww  wwwwww,EvilCookie,
WIDE_ROOM,wwwww   wwwwwwwww        cwwww,wc       wwwwww   0          w,         wwwwwh               ,         hhwwhh         0     ,          hhhh   www          ,    0    0 hh    wwww         ,w          hh   wwwww        w,wwwww     hhhh wwwwwww    wwww,EvilCookie,
WIDE_ROOM,wwwww        hhhhhhhh     wwww,ww        hhhhhhhhhh  0      w,w  0     hhh  hhhc h          ,        hh     hh  hh         ,      hhh  0  hh    hhh       ,    hhh      hh   0   hhhhh   , hhhh       hhh           hh  ,hhhhh       hhhh  www      hhh,EvilCookie,
WIDE_ROOM,wwwwww  wwwrr     cwww  wwwwww,wwwwww  ww rr       ww  wwwwww,wwww    w       0    w    wwww,                              ,                              ,wwww    w      rrww  w    wwww,wwwwww  w   0    ww  w  wwwwww,wwwwww  ww          ww  wwwwww,EvilCookie,
WIDE_ROOM,wwwwww  rrr hhhhhhhww        w,wc cww       hhhh             ,              hh          ww  ,              hh         www  ,     0    r   hh   0    wwww  ,          r   hh        wwwww ,www          hhhh       wwwwww,wwwww      hhhhhhh      wwwwww,EvilCookie,
WIDE_ROOM,ww                  rr      ww,                  0 rr        ,              ww    rr        ,             wwww   rr    0   ,   0    rr   wwww             ,        rr    ww              ,        rr                    ,ww      rr 0                ww,EvilCookie,
TALL_ROOM,wwwwww   wwwww,wwww        ww,w            w,              ,   0      0   ,              ,h       r    h,hh    rrrr  hh,hhhhhhhhhhhhhh,hhhhhhhhhhhhhh,hh   rrr    hh,h            h,          0   ,    0         ,              ,w            w,ww          ww,wwwwww   wwwww,EvilCookie,
TALL_ROOM,hhhhh   hhhhhh,hhhhh    hhhhh,   hh      hhh,    hhr       ,    hhhhh     ,   hhhhhhhr   ,hhhhhhhhhhh   ,hhhhh0 hhhh   ,hhhhh  hhh   h,hhhhhhhhhh   h,hhhhhhhhhr   h,hhhhhhhhh    h, hhhhhh     hh,  hhhr     hh ,  hh      hhh , hhh     hhhh ,hhhh    hhhhhh,hhhhh   hhhhhh,EvilCookie,
TALL_ROOM,hhhhh     hh  ,h hh      hhhh,   h     hhhhh,   h     hhh  ,   h   0 hhh  ,  hhh    hhhhh,  hhh   hhhhhh,hhhhhh  hhhh  ,h  hhhhhhhhh  ,    hhhhhhhhhh,  0  hhhhhhhhh,    hhh hhhh  ,   hhhh  hh   ,   hhh 0 hh   ,  hhhh    h   ,hhhhh     hh  ,hhhhh     hhh ,hhhh      hhhh,EvilCookie,
TALL_ROOM,wwwwww   wwwww,www        www,w            w,        w     ,       wwwww  ,   0  wwwwwwww,       wwwwwww,         wwwww,w          www,ww          cw,wwwwww       w,wwwwwww      w,wwwww         ,         0    ,              ,w            w,ww          ww,wwwwww   wwwww,EvilCookie,
TALL_ROOM,wwww     hh   ,wwww     hh   ,wwww  wwwwwww ,      www     ,      www     ,wwwwwwwww  www,wwwwwwwww  www,wwwwwwwww  www,wwwwwwwww  www,w   hh     rcw,w   hh       w,w  wwwwwwwwwww,w  wwwwwwwwwww,        wwww  ,        wwww  ,wwwwww  wwww  ,wwwwww   hh   ,wwwwww   hh   ,EvilCookie,
TALL_ROOM,wwww       www,w           ww,w             ,   0          ,         0    ,              ,ww           w,wwwwwww      w,wwwwwwwwww  ww,wwwwwwwwww  ww,wwwww        w,w             ,              ,          0   ,     ww       ,   www        , wwwww      ww,wwwwww    wwww,EvilCookie,
TALL_ROOM,wwwww    wwwww,w            w,    0         ,              ,              ,whhhhhhhhhhhhw,whhhhhhhhhhhww,w           ww,ww       0  ww,www 0       ww,www          w,wwhhhhhhhhhhhw,whhhhhhhhhhhhw,              ,         0    ,              ,w            w,wwwww    wwwww,EvilCookie,
TALL_ROOM,w            w,              ,              ,      0       ,              ,   ww    ww   ,   ww    ww   ,              ,              ,    0         ,           0  ,              ,              ,   ww    ww   ,   ww 0  ww   ,              ,              ,w            w,EvilCookie,
SMALL_ROOM,              , rr           , rr 0         ,              ,              ,        hhhhhh,        h    0,        h 0   ,EvilCookie,0,2888
SMALL_ROOM,        0     ,     hhhhhhhhh, 0  hhhhhhhhhh,    hh        ,    hh        ,    hh       r,    hh      0 ,    hh    r   ,EvilCookie,54,2942
SMALL_ROOM,wwwwww  wwwwww,    hh  hh   r, 0  hh  hh    ,    hh  hh    ,    hh  hh    ,    hh  hh  0 ,r   hh  hh    ,wwwwww  wwwwww,EvilCookie,0,2907
SMALL_ROOM,wwwwwwwwwwwwww,wwwwwwwwwwwwww,ww  h rr h  ww,    h    h    ,    h  0 h    ,ww  h rr h  ww,wwwwwwwwwwwwww,wwwwwwwwwwwwww,EvilCookie,0,3935
SMALL_ROOM,wwwwww  wwwwww,wwwww       ww,wwww     0  cw,wwww         w,wwww         w,wwww     0   w,wwwww      rww,wwwwww  wwwwww,EvilCookie,0,3067
SMALL_ROOM,         wwwww,      rr hh  w,   0  rr hh0 c,         hh   ,         hh  0,   rr    hh c ,   rr  0 hh  w,         wwwww,EvilCookie,48,4095
SMALL_ROOM,wwwww    wwwww,ww         cww,w            w,w        0   w,w            w,w  0      rr w,ww        rrww,wwwww     wwww,EvilCookie,0,4091
SMALL_ROOM,wwwwww  wwwwww,wwwww    wwwww,wwww      wwww,  r     r wwww,          wwww,wwww  r 0 wwww,wwwww    wwwww,wwwwwwwwwwwwww,EvilCookie,0,4059
SMALL_ROOM,wwwwwwwwwwwwww,wwwww    wwwww,wwww    0    w,wwww r        ,wwww      r   ,wwww 0    r  w,wwww      wwww,wwwww    wwwww,EvilCookie,0,2943
SMALL_ROOM,     r     hhh,          hh  ,  0      hhh  ,        hh    ,     hhhh     ,    hh        ,   hhh     0  ,  hhh   r     ,EvilCookie,0,2907
SMALL_ROOM,wwww      rhh ,wwww      rhh0,           hh ,           hh ,        0  hh ,           hh ,wwww       hh ,wwww       hh ,EvilCookie,192,3035
SMALL_ROOM, hh       wwww, hh       wwww, hh           , hh     0     , hh           , hh           ,0hhr      wwww, hhr      wwww,EvilCookie,48,2939
SMALL_ROOM,              ,              ,   0          ,              ,              ,           0  ,              ,              ,EvilCookie,4095,4095
SMALL_ROOM,wwwwwwwwwwwwww,wwrr   hhhwwww,c   0 hhhhhhww,      hh  0 ww,      h     ww,wwwwhhh     ww,wwwwhh   rrwww,wwwwwh   wwwww,EvilCookie,0,3039
SMALL_ROOM,wwwww   wwwwww,www      cwwww,w          www,   0          ,              ,h        wwwww,hhhh   0  wwww,hh           w,EvilCookie,1536,3931
SMALL_ROOM,wwwwwwwwwwwwww,wwwwwc   wwwww,wwwwcr  rcwwww,wwww      wwww,wwww  0   wwww,wwww r  r wwww,wwwww   cwwwww,wwwwwwwwwwwwww,EvilCookie,0,4095
SMALL_ROOM,hhhhr       hh,h             ,  0  hhhhh    ,    hhhhhhhh  ,    hhhhhhhh  ,r    hhhhhh   ,h     hhh     ,h         0   ,EvilCookie,1728,4059
SMALL_ROOM,          wwww,hhhhh    0 cww,h0  h   r    w,h   h         ,h   h         ,h  rh   r 0  w,hhhhh   r  www,          wwww,EvilCookie,48,2939
SMALL_ROOM,              ,  0        r  ,      ww      ,     wwww     ,     wwww     ,      ww      ,  r        0  ,              ,EvilCookie,0,2313
SMALL_ROOM,wwwww    hwwww,ww       hh  w,w    0   hh cw,w        hh  w,w 0     whh  w,w       wwwwww,w       wwwwww,wwww    wwwwww,EvilCookie,1024,4095
SMALL_ROOM,         wwwww,   0     rc cw,         r   w,  hh          , hhhh      0  , hhhh         , hhhhh     rrr,  hh          ,EvilCookie,0,2379
SMALL_ROOM,w            w,w  0       0 w,              ,      rr      ,      rr      ,              ,w  0       0 w,ww          ww,EvilCookie,0,2905
SMALL_ROOM,ww          ww,ww     rrrrrww,              ,         0    ,              ,     0        ,wwrrrrr     ww,ww          ww,EvilCookie,0,0
SMALL_ROOM,rr       hhhhh,rr  0  hhhhhhh,      hhh     ,     hhh   r  ,    hh        ,    h   r  0  ,w  hh        w,ww hh       ww,EvilCookie,6,2911
SMALL_ROOM, hhhhh  hhhhh ,   hhh  hhh   ,  rr hhhh     ,  r  hhhh  0  ,   0 hhhh   r ,     hhhh  rr ,   hhh  hhh   , hhhhh  hhhhh ,EvilCookie,0,2827
SMALL_ROOM,wwwwwwwwwwwwww,wwwwwwwwwwwwww,wwwwwwwwwwwwww,wwwwwwwwwwwwww,wwwwwwwwwwwwww,wwwwwwwwwwwwww,wwwwwwwwwwwwww,wwwwwwwwwwwwww,EvilCookie,0,4095
SMALL_ROOM,hhhh       hhh, hhhh     hhh ,    hh  hhh   ,   0 hhhh  0  ,     hh hh    ,   hhh   hh   , hhh      hhh ,hhh         hh,EvilCookie,0,2907
SMALL_ROOM,wwww    hhhhhh,w       hhh  c,        hh r  ,        hh  0 ,        hh    ,      hhhh r  ,w   hhhhhh    ,ww hhhhhhh  0 ,EvilCookie,0,4059
SMALL_ROOM,wwww      wwww,w            w,          0   ,    0         ,              ,hhh     hhhhhh,hhhhhhhhhhhhhh,hhhhhhhhhhhhrr,EvilCookie,0,3931
SMALL_ROOM,              ,           0  ,     hhhh     ,   hhhrrhhh   ,   hhhrrhhh   ,     hhhh     ,  0           ,              ,EvilCookie,0,0
SMALL_ROOM,              ,  ww      ww  ,  ww0 rrrrww  ,              ,              ,  wwrrrr 0ww  ,  ww      ww  ,              ,EvilCookie,0,0
SMALL_ROOM,hhhhh   hhhhhh,hhhhr   hhh  0,  h      h  rr, 0h      hh   ,  hh  0   h   ,   hh     hh  , r  hh  r  hhh,   hhh    hhhh,EvilCookie,0,2907
SMALL_ROOM,w wwwwwwwwwwww,w0 wwwwww crww,w  wwwwwww  ww,wwwwwwwwwwwwww,wwwwwwwwwwwwww,wwwwwwwwwwwwww,wwwcr wwwwwwww,www  wwwwwwwww,EvilCookie,0,4095
SMALL_ROOM,              ,    0      h  ,         hhh  ,  hh  hhhhh   ,  hhhhhhhh    ,    hhhhh     ,            0 ,              ,EvilCookie,4095,4095
SMALL_ROOM,     hh     ww,   rhh        ,    hh        , 0  hh        ,    hh    0   ,   rhh       r,   hhh       r,   hhh     rrr,EvilCookie,0,2943